%YAML 1.1
%TAG !u! tag:unity3d.com,2011:
--- !u!1045 &1
EditorBuildSettings:
  m_ObjectHideFlags: 0
  serializedVersion: 2
  m_Scenes:
  - enabled: 0
    path: Assets/Scenes/KrisysTestingScene.unity
    guid: b0750389db13b064e8be4541858d7881
  - enabled: 1
    path: Assets/Scenes/StartMenu.unity
    guid: 428e3ba1f3b912144a38e84f25455a4a
  - enabled: 1
    path: Assets/Scenes/_Main.unity
    guid: 4b87ac2cb19c446438e1df92cf326e19
  - enabled: 1
    path: Assets/Scenes/CommunistVictoryScreen.unity
    guid: cebd57c6c62f31a45807941aecefe618
  - enabled: 1
    path: Assets/Scenes/CapitalistVictoryScreen.unity
    guid: c7276a9acc77957489bd6734c8dc3b42
